C:\Users\lil_n\Documents\NetBeansProjects\Threads\JavaThreads\src\main\java\com\javathreads\Executables.java
C:\Users\lil_n\Documents\NetBeansProjects\Threads\JavaThreads\src\main\java\com\javathreads\Runnables.java
C:\Users\lil_n\Documents\NetBeansProjects\Threads\JavaThreads\src\main\java\com\javathreads\Threads.java
